Actual Branch Length Analysis
…
Actual Branch Length Analysis

Goal

The primary goal of this analysis is to determine if the literal branch length estimates themselves differ across protein models. 
 First, lets read in the datasets and create smaller versions of them that are easier to work with, just like last time.

The enzyme, mammal, and enzyme data all together

print(full_data) 

## # A tibble: 99,650 x 6
##    id                 model ASRV   node branch_length dataset
##    <chr>              <chr> <lgl> <dbl>         <dbl> <chr>  
##  1 ENSG00000000003_AA FLU   FALSE     1       0.00472 mammals
##  2 ENSG00000000003_AA FLU   FALSE     2       0.0250  mammals
##  3 ENSG00000000003_AA FLU   FALSE     3       0.00822 mammals
##  4 ENSG00000000003_AA FLU   FALSE     4       0.0294  mammals
##  5 ENSG00000000003_AA FLU   FALSE     5       0.0122  mammals
##  6 ENSG00000000003_AA FLU   FALSE     6       0.0504  mammals
##  7 ENSG00000000003_AA FLU   FALSE     7       0.0203  mammals
##  8 ENSG00000000003_AA FLU   FALSE     8       0.00801 mammals
##  9 ENSG00000000003_AA FLU   FALSE     9       0.0168  mammals
## 10 ENSG00000000003_AA FLU   FALSE    10       0.00440 mammals
## #  with 99,640 more rows

The data pivoted wide to show all models branch lengths and pivoted again to compare Poisson branch lengths with all others

full_data %>%
  unite(combined_model, model, ASRV) %>%
  group_by(id, dataset) %>%
  pivot_wider(names_from = combined_model, 
              values_from = branch_length) %>%
  ungroup() -> input_data

input_data%>%
pivot_longer( -c(id, node, dataset, Poisson_FALSE), names_to = "model_type", values_to = "branchlength")->input_poisson_f

## # A tibble: 9,965 x 13
##    id     node dataset FLU_FALSE FLU_TRUE JTT_FALSE JTT_TRUE LG_FALSE LG_TRUE
##    <chr> <dbl> <chr>       <dbl>    <dbl>     <dbl>    <dbl>    <dbl>   <dbl>
##  1 ENSG     1 mammals   0.00472  0.00554   0.00467  0.00496  0.00469 0.00530
##  2 ENSG     2 mammals   0.0250   0.0310    0.0248   0.0276   0.0249  0.0296 
##  3 ENSG     3 mammals   0.00822  0.00994   0.00824  0.00911  0.00826 0.00979
##  4 ENSG     4 mammals   0.0294   0.0363    0.0290   0.0321   0.0290  0.0344 
##  5 ENSG     5 mammals   0.0122   0.0150    0.0123   0.0136   0.0122  0.0142 
##  6 ENSG     6 mammals   0.0504   0.0633    0.0504   0.0574   0.0506  0.0619 
##  7 ENSG     7 mammals   0.0203   0.0249    0.0203   0.0225   0.0204  0.0241 
##  8 ENSG     8 mammals   0.00801  0.00955   0.00809  0.00881  0.00806 0.00927
##  9 ENSG     9 mammals   0.0168   0.0206    0.0166   0.0184   0.0168  0.0201 
## 10 ENSG    10 mammals   0.00440  0.00512   0.00447  0.00475  0.00439 0.00501
## #  with 9,955 more rows, and 4 more variables: Poisson_FALSE <dbl>,
## #   Poisson_TRUE <dbl>, WAG_FALSE <dbl>, WAG_TRUE <dbl>

## # A tibble: 89,685 x 6
##    id                  node dataset Poisson_FALSE model_type   branchlength
##    <chr>              <dbl> <chr>           <dbl> <chr>               <dbl>
##  1 ENSG00000000003_AA     1 mammals       0.00462 FLU_FALSE         0.00472
##  2 ENSG00000000003_AA     1 mammals       0.00462 FLU_TRUE          0.00554
##  3 ENSG00000000003_AA     1 mammals       0.00462 JTT_FALSE         0.00467
##  4 ENSG00000000003_AA     1 mammals       0.00462 JTT_TRUE          0.00496
##  5 ENSG00000000003_AA     1 mammals       0.00462 LG_FALSE          0.00469
##  6 ENSG00000000003_AA     1 mammals       0.00462 LG_TRUE           0.00530
##  7 ENSG00000000003_AA     1 mammals       0.00462 Poisson_TRUE      0.00485
##  8 ENSG00000000003_AA     1 mammals       0.00462 WAG_FALSE         0.00466
##  9 ENSG00000000003_AA     1 mammals       0.00462 WAG_TRUE          0.00493
## 10 ENSG00000000003_AA     2 mammals       0.0248  FLU_FALSE         0.0250 
## #  with 89,675 more rows
…
nested%>%
  select(-data)%>%
  mutate(tidied=map(lm_fit, broom::tidy))%>%
  unnest(cols = c(tidied))->unnested

unnested%>%
  filter(term == "(Intercept)")%>%
  select(id, dataset, model_type, estimate)%>%
  rename(intercept=estimate)->Intercepts_df

##Pull out the intercepts from the lm

## # A tibble: 810 x 4
## # Groups:   id, dataset, model_type [810]
##    id                 dataset model_type   intercept
##    <chr>              <chr>   <chr>            <dbl>
##  1 ENSG00000000003_AA mammals FLU_FALSE    0.000565 
##  2 ENSG00000000003_AA mammals FLU_TRUE     0.00175  
##  3 ENSG00000000003_AA mammals JTT_FALSE    0.000172 
##  4 ENSG00000000003_AA mammals JTT_TRUE     0.00114  
##  5 ENSG00000000003_AA mammals LG_FALSE     0.000204 
##  6 ENSG00000000003_AA mammals LG_TRUE      0.00118  
##  7 ENSG00000000003_AA mammals Poisson_TRUE 0.000904 
##  8 ENSG00000000003_AA mammals WAG_FALSE    0.000124 
##  9 ENSG00000000003_AA mammals WAG_TRUE     0.000962 
## 10 ENSG00000000005_AA mammals FLU_FALSE    0.0000266
## #  with 800 more rows
…
