Branch Length Summary Stats Analysis
…
summarize_branch_lengths(birds) -> birds_bl #produce a bl dataframe for all three datasets 
summarize_branch_lengths(mammals) -> mammals_bl 
summarize_branch_lengths(enzymes) -> enzymes_bl

bind_rows(mammals, enzymes, birds) -> full_data #this is just one big data frame consisting of the three datasets

summarize_branch_lengths(full_data) -> summarized_bl #this data frame will have branch length summary statistics for enzymes, birds, and mammals

print(summarized_bl) 

## # A tibble: 900 x 11
##    model ASRV  id    dataset treelength mean_bl median_bl   sd_bl cov_bl  min_bl
##    <chr> <lgl> <chr> <chr>        <dbl>   <dbl>     <dbl>   <dbl>  <dbl>   <dbl>
##  1 FLU   FALSE 100   birds        2.60  0.0456    0.0300  0.0615   1.35  2.00e-6
##  2 FLU   FALSE 1000  birds        0.755 0.00981   0.00727 0.00984  1.00  2.02e-6
##  3 FLU   FALSE 10003 birds        3.48  0.0611    0.0289  0.104    1.70  2.23e-6
##  4 FLU   FALSE 10004 birds        1.86  0.0249    0.0136  0.0304   1.22  2.06e-6
##  5 FLU   FALSE 10005 birds        0.278 0.00428   0.00430 0.00600  1.40  0.     
##  6 FLU   FALSE 10009 birds        0.557 0.00784   0.00763 0.00771  0.984 2.06e-6
##  7 FLU   FALSE 10012 birds        0.965 0.0140    0.00496 0.0224   1.60  1.00e-6
##  8 FLU   FALSE 10013 birds        1.02  0.0135    0.00742 0.0135   1.00  2.07e-6
##  9 FLU   FALSE 10017 birds        1.76  0.0374    0.0296  0.0331   0.884 2.18e-6
## 10 FLU   FALSE 1002  birds        3.01  0.0568    0.0381  0.0616   1.09  2.31e-6
## #  with 890 more rows, and 1 more variable: max_bl <dbl>
…
